<?xml version="1.0" encoding="UTF-8"?>
<!-- Do not edit this file with editors other than draw.io -->
<!DOCTYPE svg PUBLIC "-//W3C//DTD SVG 1.1//EN" "http://www.w3.org/Graphics/SVG/1.1/DTD/svg11.dtd">
<svg xmlns="http://www.w3.org/2000/svg" xmlns:xlink="http://www.w3.org/1999/xlink" version="1.1" width="54px" height="54px" viewBox="-0.5 -0.5 54 54" content="&lt;mxfile host=&quot;Electron&quot; modified=&quot;2024-05-28T16:34:57.216Z&quot; agent=&quot;Mozilla/5.0 (Windows NT 10.0; Win64; x64) AppleWebKit/537.36 (KHTML, like Gecko) draw.io/24.4.8 Chrome/124.0.6367.207 Electron/30.0.6 Safari/537.36&quot; version=&quot;24.4.8&quot; etag=&quot;aw5kqyvIDWFtj9klLEzX&quot; type=&quot;device&quot; scale=&quot;1&quot; border=&quot;0&quot;&gt;&#10;  &lt;diagram name=&quot;Page-1&quot; id=&quot;q-BJsdQJUNZvbspynMVw&quot;&gt;&#10;    &lt;mxGraphModel dx=&quot;519&quot; dy=&quot;352&quot; grid=&quot;1&quot; gridSize=&quot;10&quot; guides=&quot;1&quot; tooltips=&quot;1&quot; connect=&quot;1&quot; arrows=&quot;1&quot; fold=&quot;1&quot; page=&quot;1&quot; pageScale=&quot;1&quot; pageWidth=&quot;827&quot; pageHeight=&quot;1169&quot; math=&quot;0&quot; shadow=&quot;0&quot;&gt;&#10;      &lt;root&gt;&#10;        &lt;mxCell id=&quot;0&quot; /&gt;&#10;        &lt;mxCell id=&quot;1&quot; parent=&quot;0&quot; /&gt;&#10;        &lt;UserObject label=&quot;&quot; tags=&quot;Background&quot; id=&quot;2&quot;&gt;&#10;          &lt;mxCell style=&quot;vsdxID=139;fillColor=none;gradientColor=none;points=[[0.5,0,0],[0.5,1,0],[1,0.5,0],[0,0.5,0],[0.5,0.47,0]];labelBackgroundColor=none;rounded=0;strokeColor=none;html=1;whiteSpace=wrap;aspect=fixed;&quot; vertex=&quot;1&quot; parent=&quot;1&quot;&gt;&#10;            &lt;mxGeometry x=&quot;736&quot; y=&quot;361.5&quot; width=&quot;52&quot; height=&quot;52&quot; as=&quot;geometry&quot; /&gt;&#10;          &lt;/mxCell&gt;&#10;        &lt;/UserObject&gt;&#10;        &lt;mxCell id=&quot;3&quot; style=&quot;vsdxID=140;fillColor=#12537c;gradientColor=none;shape=stencil(nZBLDoAgDERP0z3SIyjew0SURgSD+Lu9kMZoXLhwN9O+tukAlrNpJg1SzDH4QW/URgNYgZTkjA4UkwJUgGXng+6DX1zLfmoymdXo17xh5zmRJ6Q42BWCfc2oJfdAr+Yv+AP9Cb7OJ3H/2JG1HNGz/84klThPVCc=);strokeColor=none;spacingTop=-3;spacingBottom=-3;spacingLeft=-3;spacingRight=-3;points=[[0.5,0,0],[0.5,1,0],[1,0.5,0],[0,0.5,0],[0.5,0.47,0]];labelBackgroundColor=none;rounded=0;html=1;whiteSpace=wrap;&quot; vertex=&quot;1&quot; parent=&quot;2&quot;&gt;&#10;          &lt;mxGeometry width=&quot;52&quot; height=&quot;51.99999999999998&quot; as=&quot;geometry&quot; /&gt;&#10;        &lt;/mxCell&gt;&#10;        &lt;mxCell id=&quot;4&quot; style=&quot;vsdxID=141;fillColor=none;gradientColor=none;shape=stencil(nZBLDoAgDERP0z3SIyjew0SURgSD+Lu9kMZoXLhwN9O+tukAlrNpJg1SzDH4QW/URgNYgZTkjA4UkwJUgGXng+6DX1zLfmoymdXo17xh5zmRJ6Q42BWCfc2oJfdAr+Yv+AP9Cb7OJ3H/2JG1HNGz/84klThPVCc=);strokeColor=#bcbec0;strokeWidth=2;spacingTop=-3;spacingBottom=-3;spacingLeft=-3;spacingRight=-3;points=[[0.5,0,0],[0.5,1,0],[1,0.5,0],[0,0.5,0],[0.5,0.47,0]];labelBackgroundColor=none;rounded=0;html=1;whiteSpace=wrap;&quot; vertex=&quot;1&quot; parent=&quot;2&quot;&gt;&#10;          &lt;mxGeometry width=&quot;52&quot; height=&quot;51.99999999999998&quot; as=&quot;geometry&quot; /&gt;&#10;        &lt;/mxCell&gt;&#10;        &lt;mxCell id=&quot;5&quot; style=&quot;vsdxID=142;fillColor=#FFFFFF;gradientColor=none;shape=stencil(nZLLDoMgEEW/hi0ZGPGxtvY/TMRKSsWg9vH3ldKmWkOi3Q2Xe4YBLsG8b8pOEg79YM1Z3lQ1NAQPhHPVNtKqYaoIFgTz2lh5smZsK7/uSud01cVcXYe75+KEsshRHB5vJaZZ8lKOHtCqnQHwvxkZhThsXo+yARALAMLmFKlIF2Ye0SwLAwyW0wugwPb0T8Seu36O22hfPfxUfP+4Vlr7iMz3fzMxST5PWDwB);strokeColor=none;spacingTop=-3;spacingBottom=-3;spacingLeft=-3;spacingRight=-3;points=[[0.5,0,0],[0.5,1,0],[1,0.5,0],[0,0.5,0],[0.5,0.47,0]];labelBackgroundColor=none;rounded=0;html=1;whiteSpace=wrap;&quot; vertex=&quot;1&quot; parent=&quot;2&quot;&gt;&#10;          &lt;mxGeometry x=&quot;23.796610169491515&quot; y=&quot;7.932203389830502&quot; width=&quot;22.915254237288124&quot; height=&quot;8.813559322033898&quot; as=&quot;geometry&quot; /&gt;&#10;        &lt;/mxCell&gt;&#10;        &lt;mxCell id=&quot;6&quot; style=&quot;vsdxID=143;fillColor=#FFFFFF;gradientColor=none;shape=stencil(nZLdEoIgEIWfhltmYUPt2uw9nBGDycRB7Oftg6hJc2ysu8PyncMCSzDvVdlJwqF31hzlRVdOEdwRznWrpNXOK4IFwbw2Vh6sGdoqrrsykEGdzDkkXKMvSSnbBBeH27OS0G36qOyjodHtyAD/w8goJMvwvJUVBjExwDKcIRXZBOZimWYwbV0ABfZLePolfH7R13Er8dmre/H+4Fo3TZyP8f7nQPhSHCYs7g==);strokeColor=none;spacingTop=-3;spacingBottom=-3;spacingLeft=-3;spacingRight=-3;points=[[0.5,0,0],[0.5,1,0],[1,0.5,0],[0,0.5,0],[0.5,0.47,0]];labelBackgroundColor=none;rounded=0;html=1;whiteSpace=wrap;&quot; vertex=&quot;1&quot; parent=&quot;2&quot;&gt;&#10;          &lt;mxGeometry x=&quot;23.796610169491515&quot; y=&quot;23.796610169491515&quot; width=&quot;22.915254237288124&quot; height=&quot;8.813559322033898&quot; as=&quot;geometry&quot; /&gt;&#10;        &lt;/mxCell&gt;&#10;        &lt;mxCell id=&quot;7&quot; style=&quot;vsdxID=144;fillColor=#FFFFFF;gradientColor=none;shape=stencil(pZLdDoIwDIWfZrdLaQHZNeJ7kDDcIjIy8O/tZU4jiBCJd2fd+dqTtIzSVuWNZAhtZ81BXnTRKUZbhqhrJa3uesUoY5SWxsq9Nae68O8md06njubsOlw9R8iT2FEIt2eFONCjsvNApesBEAD8Y48TLsJ5+zTOauA18XucmIc4sm9CLsQ8ME4fAYdgTXeMFoFp+oXsP6yqF+9Fl7qq/J0M/z8Poy/5o6LsDg==);strokeColor=none;spacingTop=-3;spacingBottom=-3;spacingLeft=-3;spacingRight=-3;points=[[0.5,0,0],[0.5,1,0],[1,0.5,0],[0,0.5,0],[0.5,0.47,0]];labelBackgroundColor=none;rounded=0;html=1;whiteSpace=wrap;&quot; vertex=&quot;1&quot; parent=&quot;2&quot;&gt;&#10;          &lt;mxGeometry x=&quot;5.288135593220336&quot; y=&quot;31.72881355932201&quot; width=&quot;22.915254237288124&quot; height=&quot;8.813559322033898&quot; as=&quot;geometry&quot; /&gt;&#10;        &lt;/mxCell&gt;&#10;        &lt;mxCell id=&quot;8&quot; style=&quot;vsdxID=145;fillColor=#FFFFFF;gradientColor=none;shape=stencil(pVLLDoIwEPyaXpu6i5WeEf+DhCKNlZICPv7e1moE0UbibTqd2Z1kh2DW1UUrCbCut+Ygz6rsa4JbAqCaWlrVO0QwJ5hVxsq9NUNThndbeKVHR3PyEy7Bh0BT7l3Arg8GKcM7swsGrZqRYcXYP3KeUhGRz+MsNjw3fo7DaQIT+SahQnw3TNMnIiqeT4f1kuiR4D/cyYHXlSuldSjJ+P+9FY4KjcL8Bg==);strokeColor=none;spacingTop=-3;spacingBottom=-3;spacingLeft=-3;spacingRight=-3;points=[[0.5,0,0],[0.5,1,0],[1,0.5,0],[0,0.5,0],[0.5,0.47,0]];labelBackgroundColor=none;rounded=0;html=1;whiteSpace=wrap;&quot; vertex=&quot;1&quot; parent=&quot;2&quot;&gt;&#10;          &lt;mxGeometry x=&quot;5.288135593220336&quot; y=&quot;15.864406779661005&quot; width=&quot;22.915254237288124&quot; height=&quot;8.813559322033898&quot; as=&quot;geometry&quot; /&gt;&#10;        &lt;/mxCell&gt;&#10;      &lt;/root&gt;&#10;    &lt;/mxGraphModel&gt;&#10;  &lt;/diagram&gt;&#10;&lt;/mxfile&gt;&#10;"><defs/><g><g><rect x="1" y="0.5" width="52" height="52" fill="none" stroke="none" pointer-events="all"/></g><g><path d="M 1 52.5 L 53 52.5 L 53 0.5 L 1 0.5 L 1 52.5" fill="#12537c" stroke="none" pointer-events="all"/></g><g><path d="M 1 52.5 L 53 52.5 L 53 0.5 L 1 0.5 L 1 52.5" fill="none" stroke="#bcbec0" stroke-width="2" stroke-miterlimit="10" pointer-events="all"/></g><g><path d="M 40.18 14.33 L 24.8 14.33 L 24.8 11.17 L 40.18 11.17 L 40.18 8.43 L 43.95 10.63 L 47.71 12.84 L 43.95 15.04 L 40.18 17.25 L 40.18 14.33" fill="#ffffff" stroke="none" pointer-events="all"/></g><g><path d="M 40.18 30.2 L 24.8 30.2 L 24.8 27.03 L 40.18 27.03 L 40.18 24.3 L 43.95 26.5 L 47.71 28.7 L 43.95 30.91 L 40.18 33.11 L 40.18 30.2" fill="#ffffff" stroke="none" pointer-events="all"/></g><g><path d="M 13.82 35.14 L 29.2 35.14 L 29.2 38.3 L 13.82 38.3 L 13.82 41.04 L 10.05 38.84 L 6.29 36.64 L 10.05 34.43 L 13.82 32.23 L 13.82 35.14" fill="#ffffff" stroke="none" pointer-events="all"/></g><g><path d="M 13.82 19.28 L 29.2 19.28 L 29.2 22.44 L 13.82 22.44 L 13.82 25.18 L 10.05 22.97 L 6.29 20.77 L 10.05 18.57 L 13.82 16.36 L 13.82 19.28" fill="#ffffff" stroke="none" pointer-events="all"/></g></g></svg>