<?xml version="1.0" encoding="UTF-8"?>
<!-- Do not edit this file with editors other than draw.io -->
<!DOCTYPE svg PUBLIC "-//W3C//DTD SVG 1.1//EN" "http://www.w3.org/Graphics/SVG/1.1/DTD/svg11.dtd">
<svg xmlns="http://www.w3.org/2000/svg" xmlns:xlink="http://www.w3.org/1999/xlink" version="1.1" width="52px" height="52px" viewBox="-0.5 -0.5 52 52" content="&lt;mxfile host=&quot;Electron&quot; modified=&quot;2024-05-26T14:16:31.935Z&quot; agent=&quot;Mozilla/5.0 (Windows NT 10.0; Win64; x64) AppleWebKit/537.36 (KHTML, like Gecko) draw.io/24.4.8 Chrome/124.0.6367.207 Electron/30.0.6 Safari/537.36&quot; version=&quot;24.4.8&quot; etag=&quot;wFsJkr2mr68ZB-0bpfIk&quot; type=&quot;device&quot; scale=&quot;1&quot; border=&quot;0&quot;&gt;&#10;  &lt;diagram name=&quot;Page-1&quot; id=&quot;sXMPsllM2ZOjIKvm5WI6&quot;&gt;&#10;    &lt;mxGraphModel dx=&quot;692&quot; dy=&quot;469&quot; grid=&quot;1&quot; gridSize=&quot;10&quot; guides=&quot;1&quot; tooltips=&quot;1&quot; connect=&quot;1&quot; arrows=&quot;1&quot; fold=&quot;1&quot; page=&quot;1&quot; pageScale=&quot;1&quot; pageWidth=&quot;827&quot; pageHeight=&quot;1169&quot; math=&quot;0&quot; shadow=&quot;0&quot;&gt;&#10;      &lt;root&gt;&#10;        &lt;mxCell id=&quot;0&quot; /&gt;&#10;        &lt;mxCell id=&quot;1&quot; parent=&quot;0&quot; /&gt;&#10;        &lt;mxCell id=&quot;2&quot; value=&quot;&quot; style=&quot;group;aspect=fixed;&quot; vertex=&quot;1&quot; connectable=&quot;0&quot; parent=&quot;1&quot;&gt;&#10;          &lt;mxGeometry x=&quot;306&quot; y=&quot;592.27&quot; width=&quot;50&quot; height=&quot;50&quot; as=&quot;geometry&quot; /&gt;&#10;        &lt;/mxCell&gt;&#10;        &lt;mxCell id=&quot;3&quot; value=&quot;&quot; style=&quot;rounded=1;whiteSpace=wrap;html=1;absoluteArcSize=1;arcSize=14;strokeWidth=2;strokeColor=#0080c0;container=0;&quot; vertex=&quot;1&quot; parent=&quot;2&quot;&gt;&#10;          &lt;mxGeometry width=&quot;50.00000000000001&quot; height=&quot;50.00000000000001&quot; as=&quot;geometry&quot; /&gt;&#10;        &lt;/mxCell&gt;&#10;        &lt;mxCell id=&quot;4&quot; value=&quot;&quot; style=&quot;html=1;shadow=0;dashed=0;align=center;verticalAlign=middle;shape=mxgraph.arrows2.arrow;dy=0.63;dx=9.5;notch=0;rotation=45;strokeColor=#0080C0;fillColor=#0080C0;container=0;&quot; vertex=&quot;1&quot; parent=&quot;2&quot;&gt;&#10;          &lt;mxGeometry x=&quot;7.268181818181822&quot; y=&quot;12.330909090909056&quot; width=&quot;17.272727272727273&quot; height=&quot;8.18181818181818&quot; as=&quot;geometry&quot; /&gt;&#10;        &lt;/mxCell&gt;&#10;        &lt;mxCell id=&quot;5&quot; value=&quot;&quot; style=&quot;html=1;shadow=0;dashed=0;align=center;verticalAlign=middle;shape=mxgraph.arrows2.arrow;dy=0.63;dx=9.5;notch=0;rotation=-135;strokeColor=#0080C0;fillColor=#0080C0;container=0;&quot; vertex=&quot;1&quot; parent=&quot;2&quot;&gt;&#10;          &lt;mxGeometry x=&quot;23.891818181818188&quot; y=&quot;28.555454545454594&quot; width=&quot;17.272727272727273&quot; height=&quot;8.18181818181818&quot; as=&quot;geometry&quot; /&gt;&#10;        &lt;/mxCell&gt;&#10;        &lt;mxCell id=&quot;6&quot; value=&quot;&quot; style=&quot;html=1;shadow=0;dashed=0;align=center;verticalAlign=middle;shape=mxgraph.arrows2.arrow;dy=0.63;dx=9.5;notch=0;rotation=-45;fillColor=#0080C0;strokeColor=#0080C0;container=0;&quot; vertex=&quot;1&quot; parent=&quot;2&quot;&gt;&#10;          &lt;mxGeometry x=&quot;25.090909090909108&quot; y=&quot;11.390909090909068&quot; width=&quot;17.272727272727273&quot; height=&quot;8.18181818181818&quot; as=&quot;geometry&quot; /&gt;&#10;        &lt;/mxCell&gt;&#10;        &lt;mxCell id=&quot;7&quot; value=&quot;&quot; style=&quot;html=1;shadow=0;dashed=0;align=center;verticalAlign=middle;shape=mxgraph.arrows2.arrow;dy=0.63;dx=9.5;notch=0;rotation=-225;strokeColor=#0080C0;fillColor=#0080C0;container=0;&quot; vertex=&quot;1&quot; parent=&quot;2&quot;&gt;&#10;          &lt;mxGeometry x=&quot;6.727272727272706&quot; y=&quot;28.845454545454558&quot; width=&quot;17.272727272727273&quot; height=&quot;8.18181818181818&quot; as=&quot;geometry&quot; /&gt;&#10;        &lt;/mxCell&gt;&#10;      &lt;/root&gt;&#10;    &lt;/mxGraphModel&gt;&#10;  &lt;/diagram&gt;&#10;&lt;/mxfile&gt;&#10;"><defs/><g><g/><g><rect x="1" y="0.27" width="50" height="50" rx="7" ry="7" fill="rgb(255, 255, 255)" stroke="#0080c0" stroke-width="2" pointer-events="all"/></g><g><path d="M 8.27 15.18 L 16.04 15.18 L 16.04 12.6 L 25.54 16.69 L 16.04 20.78 L 16.04 18.21 L 8.27 18.21 L 8.27 16.69 Z" fill="#0080c0" stroke="#0080c0" stroke-miterlimit="10" transform="rotate(45,16.9,16.69)" pointer-events="all"/></g><g><path d="M 24.89 31.4 L 32.66 31.4 L 32.66 28.83 L 42.16 32.92 L 32.66 37.01 L 32.66 34.43 L 24.89 34.43 L 24.89 32.92 Z" fill="#0080c0" stroke="#0080c0" stroke-miterlimit="10" transform="rotate(-135,33.53,32.92)" pointer-events="all"/></g><g><path d="M 26.09 14.24 L 33.86 14.24 L 33.86 11.66 L 43.36 15.75 L 33.86 19.84 L 33.86 17.27 L 26.09 17.27 L 26.09 15.75 Z" fill="#0080c0" stroke="#0080c0" stroke-miterlimit="10" transform="rotate(-45,34.73,15.75)" pointer-events="all"/></g><g><path d="M 7.73 31.69 L 15.5 31.69 L 15.5 29.12 L 25 33.21 L 15.5 37.3 L 15.5 34.72 L 7.73 34.72 L 7.73 33.21 Z" fill="#0080c0" stroke="#0080c0" stroke-miterlimit="10" transform="rotate(-225,16.36,33.21)" pointer-events="all"/></g></g></svg>